1,5,Maikasuwa,Yunusa,8038047529,yunusamaikasuwa@gmail.com,EHT,Yelwa Domicilary,BIRSHI,97,15th August 2016,19th August 2016,15th August-19th August 2016,NULL,NULL
2,5,UMAR,BABANGIDA,070 6843 8405,,,Lushi Disp,BIRSHI,97,26th September 2016,30th September 2016,26th-30th September 2016,NULL,NULL
3,5,Y.,Aliyu,8058618304,,,Baram Disp,BIRSHI,97,24th October 2016,28th October 2016,24th-28th October 2016,NULL,NULL
4,5,UMAR,DAUDA,7061909024,,,Kadage Disp,BIRSHI,97,26th September 2016,30th September 2016,26th-30th September 2016,NULL,NULL
5,5,DANLADI,SAFIYANU,070 5619 0347,,,Y/Bayara Disp,BIRSHI,97,26th September 2016,30th September 2016,26th-30th September 2016,NULL,NULL
6,5,Lawal,Yakubu,7035932474,yakubulawal022@gmail.com,PGD COM. Health,Y/Kagadama PHC,BIRSHI,97,29th August 2016,2nd September 2016,29th August-2nd September 2016,NULL,NULL
7,5,Adamu,Halima,8133047306,,EHT,Bayan Fada MCH,DAN 'AMAR'A,97,15th August 2016,19th August 2016,15th August-19th August 2016,NULL,NULL
8,5,B,Sadiq,8058633500,,,Fada PHC,DAN 'AMAR'A,97,26th September 2016,30th September 2016,26th-30th September 2016,NULL,NULL
9,5,Hassan,Nafisatu,8055737915,,EVT,Doya PHC,DAN 'AMAR'A,97,15th August 2016,19th August 2016,15th August-19th August 2016,NULL,NULL
10,5,Saleh,Idris,7067675479,,,K/Dumi PHC,DAN 'AMAR'B,97,26th September 2016,30th September 2016,26th-30th September 2016,NULL,NULL
11,5,GARBA,DANLAMI,7033558355,,CHEW,T/Danamar PHC,,97,29th August 2016,2nd September 2016,29th August-2nd September 2016,NULL,NULL
12,5,Rufai,Ahmad,8100446638,,,U/Mahaukata PHC,Dan Amar 'B',97,24th October 2016,28th October 2016,24th-28th October 2016,NULL,NULL
13,5,Yakubu,Hadiza,8064063204,,JCHEW,Gudum PHC,DANDANGO,97,29th August 2016,2nd September 2016,29th August-2nd September 2016,NULL,NULL
14,5,Hassan,Hafsat,8163437344,,SCHEW,SH T/Babiye,DANIJA,97,15th August 2016,19th August 2016,15th August-19th August 2016,NULL,NULL
15,5,Muhd,Adama,8083365323,,,Dawaki PHC,Dawaki,97,24th October 2016,28th October 2016,24th-28th October 2016,NULL,NULL
16,5,SULAIMAN,MUSLIM,8039545882,,EHT,Urban Maternity,Dawaki,97,15th August 2016,19th August 2016,15th August-19th August 2016,NULL,NULL
17,5,Abdullahi,Muhammed,8030416166,,,ATBUTH Imm Shed,DAN'IYA,97,26th September 2016,30th September 2016,26th-30th September 2016,NULL,NULL
18,5,Abdu,Abdulsalam,808548713,,,Fed Low Cost PHC,Dan Iya,97,24th October 2016,28th October 2016,24th-28th October 2016,NULL,NULL
19,5,Hashimu,Baqiru,8055876913,,,State Low Cost PHC,Dan Iya,97,26th September 2016,30th September 2016,26th-30th September 2016,NULL,NULL
20,5,Muhd,Rabiu,7035103915,,EHA/HE/HP,T/Ganbo PHC,,97,15th August 2016,19th August 2016,15th August-19th August 2016,NULL,NULL
21,5,ABDULLAHI,NURU,8032124027,chugarmnakinbauchi@yahoo.com,CHEW,Galambi Disp,GALAMBI,97,29th August 2016,2nd September 2016,29th August-2nd September 2016,NULL,NULL
22,5,Sulaiman,Ubale,8125829949,,,Dindima Disp,,97,26th September 2016,30th September 2016,26th-30th September 2016,NULL,NULL
23,5,SULEIMAN,IBRAHIM,080 3047 8836,,,Kwagal Disp,GALAMBI,97,26th September 2016,30th September 2016,26th-30th September 2016,NULL,NULL
24,5,Zubairu,Bashir,8088967416,,,Jitar PHC,Gwaskwaram,97,26th September 2016,30th September 2016,26th-30th September 2016,NULL,NULL
25,5,ADAMU,AMINU,8059018788,,EHA,U/Dashi Disp,,97,29th August 2016,2nd September 2016,29th August-2nd September 2016,NULL,NULL
26,5,yalwa,Sirajo,8063078962,,,Kobi Disp,HARDO,97,26th September 2016,30th September 2016,26th-30th September 2016,NULL,NULL
27,5,Bala,Sulaiman,8025478944,,EHT,Kangere PHC,KANGERE,97,29th August 2016,2nd September 2016,29th August-2nd September 2016,NULL,NULL
28,5,INUWA,AISHATU,070 8228 0733,,,PHC BISHI,KANGERE,97,26th September 2016,30th September 2016,26th-30th September 2016,NULL,NULL
29,5,AHMAD,ABDULRASHID,080 3114 5681,,,Balanshi,KANGERE,97,26th September 2016,30th September 2016,26th-30th September 2016,NULL,NULL
30,5,M.,ADAMU,7086556122,durumadamu@gmail.com,JCHEW,Durum PHC,,97,15th August 2016,19th August 2016,15th August-19th August 2016,NULL,NULL
31,5,Garba,Ibrahim,8188856413,,,Kundum Disp,,97,24th October 2016,28th October 2016,24th-28th October 2016,NULL,NULL
32,5,INUWA,ISAH,8031123554,isahjumba12@gmail.com,PCHEW,Gubi Disp,KUNDUN DURUM,97,29th August 2016,2nd September 2016,29th August-2nd September 2016,NULL,NULL
33,5,Ibrahim,Sirajo,8056857866,,,Kusi PHC,KUNDUN DURUM,97,26th September 2016,30th September 2016,26th-30th September 2016,NULL,NULL
34,5,IDRIS,JUMAI,070 6190 9559,,,Y/Kundum MCH,K/DURUM,97,26th September 2016,30th September 2016,26th-30th September 2016,NULL,NULL
35,5,Ibrahim,Umar,7086718356,,,Dumin Miri Disp,K/DURUM,97,24th October 2016,28th October 2016,24th-28th October 2016,NULL,NULL
36,5,Abubakar,Ibrahim,80323490120,,,Summu PHC,K/DURUM,97,24th October 2016,28th October 2016,24th-28th October 2016,NULL,NULL
37,5,Adamu,Halliru,8072508540,halliruadamulk2@gmail,EHT,CHC L/Katagum,,97,29th August 2016,2nd September 2016,29th August-2nd September 2016,NULL,NULL
38,5,A,Ahmed,8077043987,,CHEW,Jamda Disp,L/KATAHUN,97,15th August 2016,19th August 2016,15th August-19th August 2016,NULL,NULL
39,5,Ahmed,Abubakar,8130121032,,,M/L/Katagum PHC,L/KATAHUN,97,24th October 2016,28th October 2016,24th-28th October 2016,NULL,NULL
40,5,Samaila,Yusuf,8052357400,,,Gangu Disp,L/KATAHUN,97,24th October 2016,28th October 2016,24th-28th October 2016,NULL,NULL
41,5,Maishanu,Aminu,8075025891,,,Liman Katagum Disp,L/KATAGUM,97,26th September 2016,30th September 2016,26th-30th September 2016,NULL,NULL
42,5,Yau,Yunusa,8052575841,,,Ch.Ct/Babiye,DANKADE,97,26th September 2016,30th September 2016,26th-30th September 2016,NULL,NULL
43,5,M.,MUHD,7036514339,,,GANJUWA H/C,Makama 'A',97,24th October 2016,28th October 2016,24th-28th October 2016,NULL,NULL
44,5,Ladan,Yusuf,7064648136,yusufladan81@gmail.com,EHT,Under 5 Clinic,MAKAMA,97,15th August 2016,19th August 2016,15th August-19th August 2016,NULL,NULL
45,5,Ibrahim,Nura,8066503554,,,F/Planing Clinic,Makama 'A',97,26th September 2016,30th September 2016,26th-30th September 2016,NULL,NULL
46,5,Sambo,Saidu,8080248023,,,MCH N/Jahun,Makama 'B',97,24th October 2016,28th October 2016,24th-28th October 2016,NULL,NULL
47,5,Sani,Mohammed,7036111075,,,Gusum Disp,MUN/MUNSAL,97,24th October 2016,28th October 2016,24th-28th October 2016,NULL,NULL
48,5,Abdullahi,Umar,8076867635,,,Gamawa Disp,,97,24th October 2016,28th October 2016,24th-28th October 2016,NULL,NULL
49,5,Ibrahim,Isah,8067286631,isaibrahim074@gmail.com,CHEW,Yuguda PHC,,97,15th August 2016,19th August 2016,15th August-19th August 2016,NULL,NULL
50,5,HARUNA,IBRAHIM,8104765070,,JCHEW,Munsal MCH,MUN/MUNSAL,97,29th August 2016,2nd September 2016,29th August-2nd September 2016,NULL,NULL
51,5,Maidawa,Ahmed,8069856478,,,Dungal Disp,MIRI,97,24th October 2016,28th October 2016,24th-28th October 2016,NULL,NULL
52,5,ABDULHAMID,HASSAN,7039811440,,JCHEW,W/Dada MCH,MIRI,97,15th August 2016,19th August 2016,15th August-19th August 2016,NULL,NULL
53,5,Lawal,Muhammad,8053483739,muhammadlawalabubakar@gmail.com,Bsc HED/CHEW,R/Malam,,97,29th August 2016,2nd September 2016,29th August-2nd September 2016,NULL,NULL
54,5,Abubakar,Aminu,8155094233,,,PHC HABLI,TIRWUN,97,24th October 2016,28th October 2016,24th-28th October 2016,NULL,NULL
55,5,Ibrahim,Adamu,8064909022,,,Ibrahim Bako Clinic,TIRWUN,97,24th October 2016,28th October 2016,24th-28th October 2016,NULL,NULL
56,5,Yakubu,Bilyaminu,8062772852,,,Inkil MCH,TIRWUN,97,26th September 2016,30th September 2016,26th-30th September 2016,NULL,NULL
57,5,Hassan,Ilyasu,8035205933,,EHA,Luda PHC,,97,15th August 2016,19th August 2016,15th August-19th August 2016,NULL,NULL
58,5,Bala,Abdu,8032392613,,,Lekka PHC,Yamrat,97,24th October 2016,28th October 2016,24th-28th October 2016,NULL,NULL
59,5,Shuaibu,Abdulmumin,7062112578,,CHEW,Palla Disp,Yamrat,97,29th August 2016,2nd September 2016,29th August-2nd September 2016,NULL,NULL
60,5,Bala,Hassan,7032020503,,,Kusada Disp,Zungur,97,24th October 2016,28th October 2016,24th-28th October 2016,NULL,NULL
61,5,M,Aliyu,7061909151,,JCHEW,Ung Falke,Zungur,97,29th August 2016,2nd September 2016,29th August-2nd September 2016,NULL,NULL
62,5,Korau,Ali,8058633066,,,Gungu Disp,Zungur,97,24th October 2016,28th October 2016,24th-28th October 2016,NULL,NULL
63,5,Shuaibu,Danlati,8077265477,,,Giraka Disp,,97,24th October 2016,28th October 2016,24th-28th October 2016,NULL,NULL
64,5,Abdulkadir,Nafisatu,8168866850,,,Fomwan HC,DAWAKI,97,26th September 2016,30th September 2016,26th-30th September 2016,NULL,NULL
65,5,SAAD,AMINA,7034474676,,,,Makama,97,24th October 2016,28th October 2016,24th-28th October 2016,NULL,NULL
66,5,Danladi,Musa,8062732713,,,CCO,HARDO,97,24th October 2016,28th October 2016,24th-28th October 2016,NULL,NULL
67,5,Rashid,Muhammad,7033064007,rashidaliyu26@gmail.com,Bsc HED,HE,,97,29th August 2016,2nd September 2016,29th August-2nd September 2016,NULL,NULL
68,5,Suleiman,Abubakar,8033896211,,,DSNO,HARDO,97,24th October 2016,28th October 2016,24th-28th October 2016,NULL,NULL
69,5,D,Musa,7058260814,,,Datsang MCH,BADAGARI,98,24th October 2016,28th October 2016,24th-28th October 2016,NULL,NULL
70,5,Yau,Zainab,070 3713 7726,,,Bar Health Clinic,BAR,98,26th September 2016,30th September 2016,26th-30th September 2016,NULL,NULL
71,5,Iliya,Ruth,8137040027,ruthilya116@gmail.com,CHEW,L/sara MCH,,98,29th August 2016,2nd September 2016,29th August-2nd September 2016,NULL,NULL
72,5,Ibrahim,Dabo,8057740692,,JCHEW,General Hospital Bogoro,BOGORO,98,15th August 2016,19th August 2016,15th August-19th August 2016,NULL,NULL
73,5,J,Caroline,080 5136 8490,,,Girmala Health Post,,98,24th October 2016,28th October 2016,24th-28th October 2016,NULL,NULL
74,5,Samuel,Paul,080 7753 5479,,CHEW,PHC Boi,BOI,98,15th August 2016,19th August 2016,15th August-19th August 2016,NULL,NULL
75,5,Gwamna,Comfort,081 2467 6351,,,Dashem Yelwa Health Clinic,BOI,98,26th September 2016,30th September 2016,26th-30th September 2016,NULL,NULL
76,5,B,Dauda,7053821480,,,Bugun Health Post,BUGUN,98,24th October 2016,28th October 2016,24th-28th October 2016,NULL,NULL
77,5,Kefas,Mobshi,080 50961221,,JCHEW,Ung.Rimi PHC,DAZARA,98,15th August 2016,19th August 2016,15th August-19th August 2016,NULL,NULL
78,5,T,Emmanuel,7083161018,emmanuelthomas637@gmail.com,EHT,D/Lawan PHC,D/LAWAN,98,29th August 2016,2nd September 2016,29th August-2nd September 2016,NULL,NULL
79,5,Y.,Salome,8073981300,,,Bazaushi Health Clinic,D/LAWAN,98,24th October 2016,28th October 2016,24th-28th October 2016,NULL,NULL
80,5,Bitrus,Kauna,8122172133,,,MCH Gambar,GAMBAR,98,26th September 2016,30th September 2016,26th-30th September 2016,NULL,NULL
81,5,Daniel,Job,080 5772 0794,,EHT,Gobbiya MPHC,GOBBIYA,98,15th August 2016,19th August 2016,15th August-19th August 2016,NULL,NULL
82,5,Samaila,Emmanuel,8070884129,,,Unguwan Gyada Health Post,GOBBIYA,98,24th October 2016,28th October 2016,24th-28th October 2016,NULL,NULL
83,5,Hamidu,Ruth,7083906214,,E.H.A,Gyara Health Clinc,GYARA,98,29th August 2016,2nd September 2016,29th August-2nd September 2016,NULL,NULL
84,5,Yusuf,Lami,8065978325,,,Lusa PHC,LUSA,98,26th September 2016,30th September 2016,26th-30th September 2016,NULL,NULL
85,5,Dingis,Paul,080 58626913,,,Bongah Health Clinic,LUSA,98,26th September 2016,30th September 2016,26th-30th September 2016,NULL,NULL
86,5,Ayuba,Ruth,080 8224 4536,,,Dungah Health Clinic,LUSA,98,24th October 2016,28th October 2016,24th-28th October 2016,NULL,NULL
87,5,David,Mark,8071439843,,,Mball Health Clinic,LUSA,98,26th September 2016,30th September 2016,26th-30th September 2016,NULL,NULL
88,5,Bitrus,Luzar,070 5594 5556,,JCHEW,Dalangah MCH,LUSA,98,29th August 2016,2nd September 2016,29th August-2nd September 2016,NULL,NULL
89,5,Dakyau,Ibrahim,080 5842 3550,,,Banram Health Clinic,PROJECT,98,24th October 2016,28th October 2016,24th-28th October 2016,NULL,NULL
90,5,Daniel,Tubi,8071439916,,CCO,,BOGORO,98,24th October 2016,28th October 2016,24th-28th October 2016,NULL,NULL
91,5,IBRAHIM,SAMUEL,081 3912 4563,,HE,,BOGORO,98,26th September 2016,30th September 2016,26th-30th September 2016,NULL,NULL
92,5,JOHN,UBA,080 3690 6911,,M&E,,BOGORO,98,26th September 2016,30th September 2016,26th-30th September 2016,NULL,NULL
93,5,Abdullahi,Ismail,8067179083,,,Chinkani MCHC,Chinkani,108,26th September 2016,30th September 2016,26th-30th September 2016,NULL,NULL
94,5,Abdulhamid,Nasiru,8060312081,,,Jarmawo west MCHC,Chinkani,108,24th October 2016,28th October 2016,24th-28th October 2016,NULL,NULL
95,5,Dabo,Mannir,8062114148,,EHT,Zankam MCHC,Chinkani,108,29th August 2016,2nd September 2016,29th August-2nd September 2016,NULL,NULL
96,5,Adamu,Ibrahim,8065536927,,,Doguwa MCHC,Doguwa,108,24th October 2016,28th October 2016,24th-28th October 2016,NULL,NULL
97,5,muazu,Garba,8039167024,,,Tagwaye Dispensary,Doguwa,108,24th October 2016,28th October 2016,24th-28th October 2016,NULL,NULL
98,5,Ibrahim,Umar,8090585658,,CHEW,Dingashi Dispensary,,108,29th August 2016,2nd September 2016,29th August-2nd September 2016,NULL,NULL
99,5,Garba,Balarabe,8064894037,balarebegarbagyd@naij.com,EHA,GH Giade,Giade A,108,15th August 2016,19th August 2016,15th August-19th August 2016,NULL,NULL
100,5,SULAIMAN,BASHIR,070 3285 5545,,,Zindiri Dispensary,,108,26th September 2016,30th September 2016,26th-30th September 2016,NULL,NULL
101,5,M,Zayyanatu,8029237599,,F.H.A,Ganduha Dispensary,,108,15th August 2016,19th August 2016,15th August-19th August 2016,NULL,NULL
102,5,Abdullahi,Dahiru,,,,Yarimari,,108,24th October 2016,28th October 2016,24th-28th October 2016,NULL,NULL
103,5,Musa,Ya'u,8064263286,,,Jugudu MCHC,Jugudu,108,26th September 2016,30th September 2016,26th-30th September 2016,NULL,NULL
104,5,Muhammad,Abdulmin,8032710627,,CHEW,Garande MCHC,Jugudu,108,15th August 2016,19th August 2016,15th August-19th August 2016,NULL,NULL
105,5,Muhammed,Musa,7083484360,,EVHT,Kurba MCHC,Kurba,108,15th August 2016,19th August 2016,15th August-19th August 2016,NULL,NULL
106,5,Barde,Adamu,8128459874,,,Yalwa PHC,Kurba,108,24th October 2016,28th October 2016,24th-28th October 2016,NULL,NULL
107,5,MOH'D,BELLO,7012150123,,,Uzum MCHC,Uzum,108,26th September 2016,30th September 2016,26th-30th September 2016,NULL,NULL
108,5,Ahmed,Bappah,7034801854,,JCHEW,Korowa Dispensary,Uzum,108,29th August 2016,2nd September 2016,29th August-2nd September 2016,NULL,NULL
109,5,Abdullahi,Murtala,8066168227,,,Jahuri Dispensary,Uzum,108,24th October 2016,28th October 2016,24th-28th October 2016,NULL,NULL
110,5,A,Datti,8096178667,,,Zabi MPHC,zabi,108,26th September 2016,30th September 2016,26th-30th September 2016,NULL,NULL
111,5,Lamara,Maigari,8099479718,,,Kimari Dispensary,zabi,108,26th September 2016,30th September 2016,26th-30th September 2016,NULL,NULL
112,5,Muhammed,Bashar,8029737474,,CHEW,Jarmawo east MCHC,,108,29th August 2016,2nd September 2016,29th August-2nd September 2016,NULL,NULL
113,5,Muhammed,Ibrahim,8097096029,,,Magarya Dispensary,,108,24th October 2016,28th October 2016,24th-28th October 2016,NULL,NULL
114,5,Adamu,Bello,809316682,,CCO,Giade 'A',,108,24th October 2016,28th October 2016,24th-28th October 2016,NULL,NULL
115,5,Abba,Babayo,8090767091,,HE,,Giade LGA,108,26th September 2016,30th September 2016,26th-30th September 2016,NULL,NULL
116,5,GAMBO,ISAH,8064819601,igamboidrr24@gmail.com,EVHT,GYARA DISP,ITAS/GADAN,109,15th August 2016,19th August 2016,15th August-19th August 2016,NULL,NULL
117,5,AHAMED,AMINU,8134341979,aminuahmed73@yahoo.com,CHEW,G/HOSPITAL ITAS,,109,15th August 2016,19th August 2016,15th August-19th August 2016,NULL,NULL
118,5,ABUBAKAR,SULAIMAN,8039640998,,,GADAU PHC,,109,24th October 2016,28th October 2016,24th-28th October 2016,NULL,NULL
119,5,ADAMU,MOHAMMED,8036035146,,,GULMO HEALTH CENTRE,,109,24th October 2016,28th October 2016,24th-28th October 2016,NULL,NULL
120,5,Baffaye,Umar,8030672714,,,GIDAN GANJI PHC,Buzawa,109,24th October 2016,28th October 2016,24th-28th October 2016,NULL,NULL
121,5,ABDU,YUSUF,8031599573,,,GULULU DISP,Biikicheri,109,24th October 2016,28th October 2016,24th-28th October 2016,NULL,NULL
122,5,ALIYU,MAGAJI,8039150260,,,KAFATA DISP,GIJINA,109,26th September 2016,30th September 2016,26th-30th September 2016,NULL,NULL
123,5,MAGAJI,ALI,8130706801,,EHT,NASARAWO PHC,DIGA,109,29th August 2016,2nd September 2016,29th August-2nd September 2016,NULL,NULL
124,5,MOHAMMED,IDRIS,8089328327,,,BABU GUDU DISP,DIGA,109,26th September 2016,30th September 2016,26th-30th September 2016,NULL,NULL
125,5,ADAMU,SUNUSI,8060122014,,,KASHURI HEALTH CENTRE,,109,24th October 2016,28th October 2016,24th-28th October 2016,NULL,NULL
126,5,Sani,Mohammed,8161190013,,,SURFE DISP,,109,24th October 2016,28th October 2016,24th-28th October 2016,NULL,NULL
127,5,SULE,HARISU,8031815357,,,YARAYI DISP,YARAYI,109,26th September 2016,30th September 2016,26th-30th September 2016,NULL,NULL
128,5,MOHAMMED,BIYUTA,8031815357,,,LIZAI DISP,KASHURI,109,24th October 2016,28th October 2016,24th-28th October 2016,NULL,NULL
129,5,MUSA,BABALE,8138379092,,,WALAI DISP,GADAU,109,26th September 2016,30th September 2016,26th-30th September 2016,NULL,NULL
130,5,IBRAHIM,SAMAILA,7011508039,,EHT,MASHETA PHC,ITAS/GADAN,109,15th August 2016,19th August 2016,15th-19th August 2016,NULL,NULL
131,5,M,GARBA,7030854395,,E.V.T,ITAS TOWN MATERNITY,ITAS/GADAN,109,15th August 2016,19th August 2016,15th August-19th August 2016,NULL,NULL
132,5,ABDU,DAHIRU,8065158771,abd.dahiru@yahoo.com,CHEW,NOMANI DISP,,109,29th August 2016,2nd September 2016,29th August-2nd September 2016,NULL,NULL
133,5,ILIYA,IDRIS,7085758483,,,SHARIFORI DISP,ATAFOWA,109,26th September 2016,30th September 2016,26th-30th September 2016,NULL,NULL
134,5,S,MAGAJI,8036353647,,,KATSINAWA HEALTH CENTRE,KASHURI,109,26th September 2016,30th September 2016,26th-30th September 2016,NULL,NULL
135,5,SANI,SHAMSU,8122126020,,EVT,MADOBIYA HEALTH CENTRE,MASHEMA,109,29th August 2016,2nd September 2016,29th August-2nd September 2016,NULL,NULL
136,5,ABDULLAHI,BASHIR,7086911759,,,MAJIYA HEALTH CENTRE,MASHEMA,109,24th October 2016,28th October 2016,24th-28th October 2016,NULL,NULL
137,5,M,BALA,8038002718,balamuhammed23@gmail.com,E.H.A,BAKAR KUKA H/C,ATAFOWA,109,29th August 2016,2nd September 2016,29th August-2nd September 2016,NULL,NULL
138,5,AHMED,GAMBO,080 203 842 17,,CCO,,ITAS,109,26th September 2016,30th September 2016,26th-30th September 2016,NULL,NULL
139,5,DAUDA,MAGAJI,080 2038 4217,,HE,,ATAFOWA,109,26th September 2016,30th September 2016,26th-30th September 2016,NULL,NULL
140,5,Dauda,Umar,8063097400,,EHA,Tsangaya MPHC,,94,29th August 2016,2nd September 2016,29th August-2nd September 2016,NULL,NULL
141,5,Yahaya,Danladi,7057109297,,EHT,Balma mat,Balma,94,15th August 2016,19th August 2016,15th August-19th August 2016,NULL,NULL
142,5,Ahmed,Munkaila,8015566005,,,Balma disp,Balma,94,24th October 2016,28th October 2016,24th-28th October 2016,NULL,NULL
143,5,Zakarai,Salihu,8026054957,,,Iyayi Disp,Balma,94,24th October 2016,28th October 2016,24th-28th October 2016,NULL,NULL
144,5,Mato,Nasiru,7057999884,,,K/kayel disp,Balma,94,24th October 2016,28th October 2016,24th-28th October 2016,NULL,NULL
145,5,Sani,Muhd,8056585226,,,Ruwan kanki disp,Balma,94,26th September 2016,30th September 2016,26th-30th September 2016,NULL,NULL
146,5,Abdullahi,Shuaibu,9096521417,,,Jigawar kuran Disp,Balma,94,15th August 2016,19th August 2016,15th August-19th August 2016,NULL,NULL
147,5,I,Auwal,70822742411,,,Jigawar kuran Disp,Balma,94,24th October 2016,28th October 2016,24th-28th October 2016,NULL,NULL
148,5,Adamu,Salisu,8120464111,,EHA,Bashe HC,Bashe,94,15th August 2016,19th August 2016,15th August-19th August 2016,NULL,NULL
149,5,DANLADI,KABIRU,070 3570 2283,,,Tamba disp,Bashe,94,26th September 2016,30th September 2016,26th-30th September 2016,NULL,NULL
150,5,Bawaji,Sulaiman,8024043659,,,Dabar Baga HC,Bashe,94,26th September 2016,30th September 2016,26th-30th September 2016,NULL,NULL
151,5,Sulaiman,Sani,8089012900,,,Burra dispensary,Burra,94,24th October 2016,28th October 2016,24th-28th October 2016,NULL,NULL
152,5,Auwal,Muhd,7081686902,,CHEW,Ung Kanawa disp,Burra,94,29th August 2016,2nd September 2016,29th August-2nd September 2016,NULL,NULL
153,5,Sulaiman,Nasiru,7080925262,,,Magami Dispensary,Burra,94,29th August 2016,2nd September 2016,29th August-2nd September 2016,NULL,NULL
154,5,Hassan,Nura,7068367818,,,Dingis dispensary,Dingis,94,24th October 2016,28th October 2016,24th-28th October 2016,NULL,NULL
155,5,Idris,Mas'ud,8058644197,,,Tuwashi dispensary,Dingis,94,24th October 2016,28th October 2016,24th-28th October 2016,NULL,NULL
156,5,Musa,Safiyanu,8076316787,safiyanumusazo@gmail.com,EHT,Katsinawa HC,Dingis,94,29th August 2016,2nd September 2016,29th August-2nd September 2016,NULL,NULL
157,5,umar,Kursiyya,8051089547,,,Guda HC,,94,24th October 2016,28th October 2016,24th-28th October 2016,NULL,NULL
158,5,Dauda,Idris,8060426758,,EHT,Gadar maiwa maternity,Jangu,94,15th August 2016,19th August 2016,15th August-19th August 2016,NULL,NULL
159,5,M,Usman,8058644420,,,Zakara dispensary,Jangu,94,26th September 2016,30th September 2016,26th-30th September 2016,NULL,NULL
160,5,Abdullahi,Dauda,8064430232,,,Kafin zaki dispensary,Jangu,94,26th September 2016,30th September 2016,26th-30th September 2016,NULL,NULL
161,5,Zakari,Musa,8086400888,,CHEW,Kafin lemo dispensary,Kafin Lemo,94,29th August 2016,2nd September 2016,29th August-2nd September 2016,NULL,NULL
162,5,Ibrahim,Aminu,8051920062,,,Ringya Disp,Bashe,94,24th October 2016,28th October 2016,24th-28th October 2016,NULL,NULL
163,5,Halilu,Habibu,8083970444,habibuhalliru@gmail.com,EHT,Massussuka HC,,94,15th August 2016,19th August 2016,15th August-19th August 2016,NULL,NULL
164,5,Abdullahi,Zubairu,8025611671,,,Shuwaki dispensary,,94,26th September 2016,30th September 2016,26th-30th September 2016,NULL,NULL
165,5,Bawa,Iliya,8143050402,,EHT,Batu HC,Kudu Yamma,94,29th August 2016,2nd September 2016,29th August-2nd September 2016,NULL,NULL
166,5,Adamu,Mohammed,8089226595,,HCHEW,Rafin Chiyawa Health Centre,Kudu Yamma,94,15th August 2016,19th August 2016,15th August-19th August 2016,NULL,NULL
167,5,Magaji,Auwalu,8055464615,,,Tabla dispensary,Kudu Yamma,94,26th September 2016,30th September 2016,26th-30th September 2016,NULL,NULL
168,5,Isyaku,Murtala,8076145326,,,Katsinawan Tabla,Kudu Yamma,94,24th October 2016,28th October 2016,24th-28th October 2016,NULL,NULL
169,5,Dauda,Nasiru,8054538343,,,Jimi dispensary,Kudu Yamma,94,26th September 2016,30th September 2016,26th-30th September 2016,NULL,NULL
170,5,M,Umar,8085788530,,,Unguwar Dabo,Kudu Yamma,94,24th October 2016,28th October 2016,24th-28th October 2016,NULL,NULL
171,5,Isah,Jafaru,7085491029,,,Kurmi dispensary,Kurmi,94,26th September 2016,30th September 2016,26th-30th September 2016,NULL,NULL
172,5,Hassan,Mohammed,8086920729,,EHA,Dana dispensary,Kurmi,94,29th August 2016,2nd September 2016,29th August-2nd September 2016,NULL,NULL
173,5,Muhd,Nura,8058269883,,EH.T,Ganji dispensary,Kurmi,94,15th August 2016,19th August 2016,15th August-19th August 2016,NULL,NULL
174,5,Alhassan,Zakarai,8084174217,,JCHEW/EVT,T/jarkoya,,94,29th August 2016,2nd September 2016,29th August-2nd September 2016,NULL,NULL
175,5,Yusuf,Nazif,7014850495,,,Deru dispensary,,94,26th September 2016,30th September 2016,26th-30th September 2016,NULL,NULL
176,5,Haruna,Zakarai,8077260701,,,Yola HP,,94,26th September 2016,30th September 2016,26th-30th September 2016,NULL,NULL
177,5,A,Abdul,8058644340,,S.E.H.T,MPHC Nassaru,Nasaru B,94,15th August 2016,19th August 2016,15th August-19th August 2016,NULL,NULL
178,5,Shehu,Nafiu,8055308549,,EHT,Gidan baki HP,Nasaru B,94,29th August 2016,2nd September 2016,29th August-2nd September 2016,NULL,NULL
179,5,Hussaini,Alti,7058330311,,,Idi Na'anna H/Post,,94,24th October 2016,28th October 2016,24th-28th October 2016,NULL,NULL
180,5,Adama,Bishira,9052553713,,,Town maternity,Ningi West,94,24th October 2016,28th October 2016,24th-28th October 2016,NULL,NULL
181,5,Ibrahim,Salisu,7058455174,,,U/wawa HP,Ningi West,94,26th September 2016,30th September 2016,26th-30th September 2016,NULL,NULL
182,5,M,Sabo,8087297306,,,Kwangi Disp,,94,24th October 2016,28th October 2016,24th-28th October 2016,NULL,NULL
183,5,Harua,Yakubu,8120213037,,HIT,Yadagungume MPHC,,94,15th August 2016,19th August 2016,15th August-19th August 2016,NULL,NULL
184,5,wada,Tasiu,8087405342,,,Limi Disp,,94,24th October 2016,28th October 2016,24th-28th October 2016,NULL,NULL
185,5,Usman,Jafar,7058390484,,,CCO,Ningi East,94,24th October 2016,28th October 2016,24th-28th October 2016,NULL,NULL
186,5,Nasiru,Muh'd,8055553826,,,M&E,Ningi,94,26th September 2016,30th September 2016,26th-30th September 2016,NULL,NULL
187,26,Abubakar,Balkisu,7088838647,,,MCH Bangi,,537,19th September 2016,23rd September 2016,19th-23rd September 2016,NULL,NULL
188,26,M.,Lawal,8024619290,,,Shadadi HF,,537,19th September 2016,23rd September 2016,19th-23rd September 2016,NULL,NULL
189,26,M.,Aliyu,8124588138,,,Malingo HF,,537,19th September 2016,23rd September 2016,19th-23rd September 2016,NULL,NULL
190,26,Hashimu,Yunusa,7016685277,,JCEW,Farar Doka,,537,24th October 2016,28th October 2016,24th-28th October 2016,NULL,NULL
191,26,Gambo,Mamman,8060567255,,JCHEW,CHC Beri,Beri,537,24th October 2016,28th October 2016,24th-28th October 2016,NULL,NULL
192,26,Shehu,Awalu,8029309306,,JCHEW,Uraga,Beri,537,24th October 2016,28th October 2016,24th-28th October 2016,NULL,NULL
193,26,Dahiru,Adamu,8133741468,,,FSP Kamfanin Bobi,,537,19th September 2016,23rd September 2016,19th-23rd September 2016,NULL,NULL
194,26,Yohana,Bulus,9092288871,,,Durgu HF,,537,19th September 2016,23rd September 2016,19th-23rd September 2016,NULL,NULL
195,26,Usman,Alhassan,8123034837,,JCHEW,Matari HF,,537,24th October 2016,28th October 2016,24th-28th October 2016,NULL,NULL
196,26,Iwaya,Isaac,8094090300,,JCEW,Ukuru HF,,537,24th October 2016,28th October 2016,24th-28th October 2016,NULL,NULL
197,26,Muazu,Lawal,7089091750,,CHEW,BHC Gulbin Boka,Gulbin Boka,537,24th October 2016,28th October 2016,24th-28th October 2016,NULL,NULL
198,26,S.,Musa,8086242132,,JCHEW,Kuimo HF,,537,24th October 2016,28th October 2016,24th-28th October 2016,NULL,NULL
199,26,Abdullahi,Yusuf,7035670037,,CHEW,Dusai HF,,537,24th October 2016,28th October 2016,24th-28th October 2016,NULL,NULL
200,26,udu,Masa,8060830273,,JCHEW,Lioji PHCC,,537,24th October 2016,28th October 2016,24th-28th October 2016,NULL,NULL
201,26,Tsalha,Abdullahi,8032665475,,JCEW,Ola PHC Kuimo,,537,24th October 2016,28th October 2016,24th-28th October 2016,NULL,NULL
202,26,Isah,Shaibu,8081219289,,CHEW,Kasuwan Garba HF,Igwama,537,24th October 2016,28th October 2016,24th-28th October 2016,NULL,NULL
203,26,Kartau,Joseline,7034661421,,,Igwama HF,Igwama,537,24th October 2016,28th October 2016,24th-28th October 2016,NULL,NULL
204,26,Musa,Hauwa,8022529630,,,CHC Mariga,Inkwai,537,19th September 2016,23rd September 2016,19th-23rd September 2016,NULL,NULL
205,26,Musa,Salisu,7088935477,,JCHEW,CHC Mariga,Inkwai,537,24th October 2016,28th October 2016,24th-28th October 2016,NULL,NULL
206,26,Mori,Adamu,8082677790,,CHEW,Ishanga HF,,537,21st November 2016,25th November 2016,21st-25th November 2016,NULL,NULL
207,26,.A.,Shuaibu,7088473554,,CHEW,Tsohon Gari HF,Kotonkoro,537,21st November 2016,25th November 2016,21st-25th November 2016,NULL,NULL
208,26,Abdulmumin,Abubakar,7089936414,,JCHEW,Sabon Gari HF,Kotonkoro,537,21st November 2016,25th November 2016,21st-25th November 2016,NULL,NULL
209,26,Galadima,Saidu,7010076205,,CHEW,Karan Bana HF,Kotonkoro,537,21st November 2016,25th November 2016,21st-25th November 2016,NULL,NULL
210,26,Gambo,Amina,8086435848,,CHEW,Matseri HF,Kotonkoro,537,21st November 2016,25th November 2016,21st-25th November 2016,NULL,NULL
211,26,Shehu,Hauwa,,,HE,,,537,19th September 2016,23rd September 2016,19th-23rd September 2016,NULL,NULL
212,26,IBRAHIM,UMARU,8022058158,,CHEW,GEN. HOSPITAL,CHENIYAN,539,21st November 2016,25th November 2016,21st-25th November 2016,NULL,NULL
213,26,Jummai,Rebecca,8060662288,,,MCH DOKODZA,DOKODZA,539,19th September 2016,23rd September 2016,19th-23rd September 2016,NULL,NULL
214,26,T,Rabiyatu,8108580483,,CHEW,MCH DOKODZA,DOKODZA,539,24th October 2016,28th October 2016,24th-28th October 2016,NULL,NULL
215,26,Babayawo,Aliyu,8067061601,,CHEW,M.D.G. GBAZHI,DOKODZA,539,24th October 2016,28th October 2016,24th-28th October 2016,NULL,NULL
216,26,Muhammed,Aminat,7066371841,,JCHEW,FATIMA MEM. HOME,KYARI,539,21st November 2016,25th November 2016,21st-25th November 2016,NULL,NULL
217,26,A,TANKO,7035535771,,CHEW,KPEBEGI CLINIC,KYARI,539,24th October 2016,28th October 2016,24th-28th October 2016,NULL,NULL
218,26,L.,MARYAM,8032809643,,CHEW,MCH ETSU YAHAYA,LANDZUN,539,21st November 2016,25th November 2016,21st-25th November 2016,NULL,NULL
219,26,L.,ADAMA,8068727983,,,MCH MAKWALLA,MASABA B,539,19th September 2016,23rd September 2016,19th-23rd September 2016,NULL,NULL
220,26,Mamman,Kenturah,8133003202,,CHEW,MCH MAKWALLA,MASABA B,539,21st November 2016,25th November 2016,21st-25th November 2016,NULL,NULL
221,26,Muhammad,Idayat,7032635486,,CHEW,USMAN/ AISHA,,539,21st November 2016,25th November 2016,21st-25th November 2016,NULL,NULL
222,26,A,SAFIYA,8063703519,,JCHEW,CHC NDAJIYA,M./NDAJIYA,539,24th October 2016,28th October 2016,24th-28th October 2016,NULL,NULL
223,26,Abdullahi,Ramatu,8036948052,,CHEW,MCH NASARAFU,NASARAFU,539,24th October 2016,28th October 2016,24th-28th October 2016,NULL,NULL
224,26,Adamu,Fatima,8064998803,,SCHEW (Asst. RI Provider),MCH NASARAFU,NASARAFU,539,24th October 2016,28th October 2016,24th-28th October 2016,NULL,NULL
225,26,Umar,Fatima,8068726736,,,,NASARAFU,539,21st November 2016,25th November 2016,21st-25th November 2016,NULL,NULL
226,26,USMAN,HAUWA,7030559366,,CHEW,MCH BANGAIE,NASARAFU,539,24th October 2016,28th October 2016,24th-28th October 2016,NULL,NULL
227,26,Moh'd,Maimuna,7038586350,,JCHEW,LARUTA CLINIC,U./MAJIGI A,539,24th October 2016,28th October 2016,24th-28th October 2016,NULL,NULL
228,26,USMAN,JOY,7089091750,,BSc,EFU LUKPAN CLINIC,,539,24th October 2016,28th October 2016,24th-28th October 2016,NULL,NULL
229,26,Idris,Amina,8065643621,,CHEW,Engr. A.A Kure,Masaba B,539,24th October 2016,28th October 2016,24th-28th October 2016,NULL,NULL
230,26,ABDULLAHI,FATIMA,7064650373,,SCHEW Asst. RI provider,Engr. A.A Kure,Masaba B,539,19th September 2016,23rd September 2016,19th-23rd September 2016,NULL,NULL
231,26,A.,YUNUSA,7032468453,,,M./HASSAN,Masaba 'A' Bida,539,19th September 2016,23rd September 2016,19th-23rd September 2016,NULL,NULL
232,26,KOLO,YAKUBU,8036836417,,,WADATA CC/ PHC Bida,WADATA,539,19th September 2016,23rd September 2016,19th-23rd September 2016,NULL,NULL
233,26,ABUBAKAR,FATIMA,8035997829,,ASST. CCO,,,539,24th October 2016,28th October 2016,24th-28th October 2016,NULL,NULL
234,26,DAJI,EMMANUEL,8074012040,,JCHEW,PHCC RORO,BANGAJIYA,547,21st November 2016,25th November 2016,21st-25th November 2016,NULL,NULL
235,26,BALA,AISHATU,8064716776,,JCHEW,MCH KUTA,BANGAJIYA,547,21st November 2016,25th November 2016,21st-25th November 2016,NULL,NULL
236,26,ADAMU,TANKO,8188685774,,CHEW,PHCC BASSA,,547,21st November 2016,25th November 2016,21st-25th November 2016,NULL,NULL
237,26,AUTA,BAWA,8072437078,,CHEW,PHCCKUKOKI,EGWA/GWADA,547,21st November 2016,25th November 2016,21st-25th November 2016,NULL,NULL
238,26,Bala,Fati,8130157117,,JCHEW,MDG G/GWARI,EGWA/GWADA,547,21st November 2016,25th November 2016,21st-25th November 2016,NULL,NULL
239,26,Danladi,Joyce,805503088,,CHEW,PHCC EGWA,EGWA/GWADA,547,24th October 2016,28th October 2016,24th-28th October 2016,NULL,NULL
240,26,.S.,Janet,8038691079,,CHEW,PHCCKWAKWA,EGWA/GWADA,547,21st November 2016,25th November 2016,21st-25th November 2016,NULL,NULL
241,26,SAIDU,MAIRO,7039238662,,JCHEW,PHCC CHIRI,EGWA/GWADA,547,21st November 2016,25th November 2016,21st-25th November 2016,NULL,NULL
242,26,OSAGIE,SUNDAY,8059236467,,CHEW,PHCC AWASHA,EGWA/GWADA,547,21st November 2016,25th November 2016,21st-25th November 2016,NULL,NULL
243,26,Barde,Umaru,7068822620,,CHEW,PHCC FARINDOKI,ERENA,547,24th October 2016,28th October 2016,24th-28th October 2016,NULL,NULL
244,26,L.,TABITHA,8076223430,,CHEW,BHC GALKOGO,GALKOGO,547,21st November 2016,25th November 2016,21st-25th November 2016,NULL,NULL
245,26,Dauda,Idris,7058985162,,CHEW,MDG KNIBUYI,GALKOGO,547,21st November 2016,25th November 2016,21st-25th November 2016,NULL,NULL
246,26,Mohammed,Mustapha,8109154219,,CHEW,PHCCIBURO,GALKOGO,547,21st November 2016,25th November 2016,21st-25th November 2016,NULL,NULL
247,26,Ifeoma,Ugwuanyi,7039559211,,CHEW,PHCC KUSHAKU,GALKOGO,547,21st November 2016,25th November 2016,21st-25th November 2016,NULL,NULL
248,26,Dada,Nalado,7056540302,,JCHEW,PHC KUDODO,GALKOGO,547,24th October 2016,28th October 2016,24th-28th October 2016,NULL,NULL
249,26,Daudu,Bala,8054455872,,SCHEW,PHCC KUSASU,GALKOGO,547,21st November 2016,25th November 2016,21st-25th November 2016,NULL,NULL
250,26,Bitrus,Comfort,8074711078,,CHEW,PHCC JEMI,GALKOGO,547,21st November 2016,25th November 2016,21st-25th November 2016,NULL,NULL
251,26,Ya'u,Mansir,8059132800,,CHEW,PHCC GIJIWA,GIJIWA/KATO,547,24th October 2016,28th October 2016,24th-28th October 2016,NULL,NULL
252,26,.A.,Sale,8074286766,,JCHEW,PHCCKUNU,GIJIWA/KATO,547,21st November 2016,25th November 2016,21st-25th November 2016,NULL,NULL
253,26,ABDULLAHI,KABIRU,,,CHEW,PHCC KATO,GIJIWA/KATO,547,21st November 2016,25th November 2016,21st-25th November 2016,NULL,NULL
254,26,Dan-Azumi,Yusuf,8037919639,,JCHEW,PHCCKAMATA,GIJIWA/KATO,547,21st November 2016,25th November 2016,21st-25th November 2016,NULL,NULL
255,26,Musa,Ibrahim,8067410566,,CHEW,PHCC LUWA,GIJIWA/KATO,547,21st November 2016,25th November 2016,21st-25th November 2016,NULL,NULL
256,26,Jagaba,Dantani,7034943523,,SCHEW,PHCC MAIKAKAKI,GIJIWA/KATO,547,24th October 2016,28th October 2016,24th-28th October 2016,NULL,NULL
257,26,ALIYU,DAHAI,8077503868,,CHEW,PHCC GURMANA,GURMANA,547,24th October 2016,28th October 2016,24th-28th October 2016,NULL,NULL
258,26,Usman,Yunusa,8038096093,,CHEW,PHCC AJATA ABOKI,GURMANA,547,24th October 2016,28th October 2016,24th-28th October 2016,NULL,NULL
259,26,TANKO,BAYI,9054726449,,CHEW,PHCC FALALI,GURMANA,547,24th October 2016,28th October 2016,24th-28th October 2016,NULL,NULL
260,26,MAMUDA,ILIYA,7057297776,,CHEW,PHCC FIYI,GUSSORO/ZUMBA,547,24th October 2016,28th October 2016,24th-28th October 2016,NULL,NULL
261,26,SAIDU,AMINA,8149493105,,JCHEW,PHCC JABUKIN KASA,GUSSORO/ZUMBA,547,24th October 2016,28th October 2016,24th-28th October 2016,NULL,NULL
262,26,DAVID,BLESSING,8076931943,,CHEW,PHCC GUSSORO,GUSSORO/ZUMBA,547,24th October 2016,28th October 2016,24th-28th October 2016,NULL,NULL
263,26,JOSHUA,JOY.B.,8078149450,,JCHEW,PHCC ZUMBA,GUSSORO/ZUMBA,547,24th October 2016,28th October 2016,24th-28th October 2016,NULL,NULL
264,26,Aliyu,Zuwaira,903043535,,CHEW,PHCC ZUKUCHI,GUSSORO/ZUMBA,547,24th October 2016,28th October 2016,24th-28th October 2016,NULL,NULL
265,26,NUBEYI,AHMED,8175615160,,CHEW,PHCC KWATAYI,KUREBE/KUSHAKA,547,24th October 2016,28th October 2016,24th-28th October 2016,NULL,NULL
266,26,PATRICK,BAWA,8073696528,,OND,PHCC KUREBE,KUREBE/KUSHAKA,547,24th October 2016,28th October 2016,24th-28th October 2016,NULL,NULL
267,26,Garba,Mamman,80714162711,,JCHEW,PHCC BADNA,KUREBE/KUSHAKA,547,24th October 2016,28th October 2016,24th-28th October 2016,NULL,NULL
268,26,Kofur,Usman,8152647820,,JCHEW,PHCC SABON GIDA,KUREBE/KUSHAKA,547,24th October 2016,28th October 2016,24th-28th October 2016,NULL,NULL
269,26,Dan-Azum,Hassan,7030583358,,JCHEW,PHCC KWAKI,KWAKI/CHIKUBA,547,24th October 2016,28th October 2016,24th-28th October 2016,NULL,NULL
270,26,Madaki,Ibrahim,8056611061,,OND,PHCC CHIKUBA,KWAKI/CHIKUBA,547,24th October 2016,28th October 2016,24th-28th October 2016,NULL,NULL
271,26,Dogo,Abdullahi,8055290506,,JCHEW,PHCC CHIKUBA,KWAKI/CHIKUBA,547,24th October 2016,28th October 2016,24th-28th October 2016,NULL,NULL
272,26,YUSUF,USMAN,7051534539,,JCHEW,PHCC KANPANI,KWAKI/CHIKUBA,547,24th October 2016,28th October 2016,24th-28th October 2016,NULL,NULL
273,26,Sani,Yunusa,8038096093,,CHEW (Asst. RI provider),PHCC KANPANI,KWAKI/CHIKUBA,547,24th October 2016,28th October 2016,24th-28th October 2016,NULL,NULL
274,26,SANDA,ABOKI,8093507070,,CHEW,PHCC MANTA,MANTA,547,24th October 2016,28th October 2016,24th-28th October 2016,NULL,NULL
275,26,BULUS,IBRAHIM,7062935786,,CHEW,PHCC JIKO,MANTA,547,24th October 2016,28th October 2016,24th-28th October 2016,NULL,NULL
276,26,Hassan,Suleiman,7036668331,,JCHEW,PHCC JIKO,MANTA,547,21st November 2016,25th November 2016,21st-25th November 2016,NULL,NULL
277,26,Bayaro,Abdullahi,8055841626,,JCHEW,PHCC KINI,MANTA,547,24th October 2016,28th October 2016,24th-28th October 2016,NULL,NULL
278,26,SILAS,SABASTINE,8173050706,,CHEW,PHCC PINA,SHE/GUNU,547,24th October 2016,28th October 2016,24th-28th October 2016,NULL,NULL
279,26,N,HOSEA,9092990675,,JCHEW,PHCC OWU,SHE/GUNU,547,24th October 2016,28th October 2016,24th-28th October 2016,NULL,NULL
280,26,YAKUBU,ABUBAKAR,8098625993,,CHEW,PHCC SABON GIDA,S/GIDA,547,24th October 2016,28th October 2016,24th-28th October 2016,NULL,NULL
281,26,Abdul,Ramatu,7037090910,,CHEW,PHCC KOLU,Pina/Kolu,547,24th October 2016,28th October 2016,,NULL,NULL
282,26,Mohammed,Fati,8068043860,,JCHEW,GOTUPE,Pina/Kolu,547,24th October 2016,28th October 2016,24th-28th October 2016,NULL,NULL
283,26,ABDULLAHI,SAIDU,7037062778,,CHEW,BHC GUNU,SHE/GUNU,547,24th October 2016,28th October 2016,24th-28th October 2016,NULL,NULL
284,26,Abdullahi,Aishatu,8038846130,,CHEW,BHC GUNU,SHE/GUNU,547,24th October 2016,28th October 2016,24th-28th October 2016,NULL,NULL
285,26,Abara,Victoria,8036320961,,CHEW,BHC SHE,SHE/GUNU,547,24th October 2016,28th October 2016,24th-28th October 2016,NULL,NULL
286,26,Sani,Maryam,8060604134,,CHEW,BHC SHE,SHE/GUNU,547,21st November 2016,25th November 2016,21st-25th November 2016,NULL,NULL
287,26,G.,AMINA,8169180885,,JCHEW,PHCC SHAKWATU,SHE/GUNU,547,24th October 2016,28th October 2016,24th-28th October 2016,NULL,NULL
288,26,USMAN,AMINA,8021227032,,,PHCC M/DAYA,,547,19th September 2016,23rd September 2016,19th-23rd September 2016,NULL,NULL
289,26,MUSA,USMAN,9092994571,,,PHCC GBASSE,,547,19th September 2016,23rd September 2016,19th-23rd September 2016,NULL,NULL
290,26,BABA,YUSUF,8058817040,,,PHCC NUBUTA,,547,19th September 2016,23rd September 2016,19th-23rd September 2016,NULL,NULL
291,26,ZARMAI,LEO,8173015276,,,PHCC NAVI,,547,19th September 2016,23rd September 2016,19th-23rd September 2016,NULL,NULL
292,26,HASSAN,KULUWA,7063128355,,,PHCC NAKOMI,,547,19th September 2016,23rd September 2016,19th-23rd September 2016,NULL,NULL
293,26,DAUDA,RHODA,8185010467,,,PHCC NADOGBEN,UBANDOMA,547,19th September 2016,23rd September 2016,19th-23rd September 2016,NULL,NULL
294,26,USMAN,SAIDU,8058771175,,,PHCC GBACHIPE,UBANDOMA,547,19th September 2016,23rd September 2016,19th-23rd September 2016,NULL,NULL
295,26,GAYA,DANLADI,,,,PHCC LAPA,UBANDOMA,547,19th September 2016,23rd September 2016,19th-23rd September 2016,NULL,NULL
296,26,Aliyu,Shaibu,,,,PHCC KPOWI,UBANDOMA,547,19th September 2016,23rd September 2016,19th-23rd September 2016,NULL,NULL
297,26,Ayuba,Fatima,,,,GEN. HOSP. KUTA,UBANDOMA,547,19th September 2016,23rd September 2016,19th-23rd September 2016,NULL,NULL
298,26,Bitrus,Blessing,9036983679,,JCHEW,GEN. HOSP. KUTA,UBANDOMA,547,21st November 2016,25th November 2016,21st-25th November 2016,NULL,NULL
299,26,ABDULLAHI,BAKAH,8098910040,,,PHCC TAWO,UBANDOMA,547,19th September 2016,23rd September 2016,19th-23rd September 2016,NULL,NULL
300,26,ADAMU,UMARU,8156333438,,,PHCC TUMTUM,UBANDOMA,547,19th September 2016,23rd September 2016,19th-23rd September 2016,NULL,NULL
301,26,Barau,Habiba,,,,PHCC SHAPE,UBANDOMA,547,19th September 2016,23rd September 2016,19th-23rd September 2016,NULL,NULL
302,26,Adamu,Zainab,,,,PHCC KWAITA,UBANDOMA,547,19th September 2016,23rd September 2016,19th-23rd September 2016,NULL,NULL
303,26,WAKILI,NAOMI,8067759447,,,PHCC AGBOLO,UBANDOMA,547,19th September 2016,23rd September 2016,19th-23rd September 2016,NULL,NULL
304,26,IBRAHIM,FATIMA,7061088240,,,PHCC TASHAKAU,UBANDOMA,547,19th September 2016,23rd September 2016,19th-23rd September 2016,NULL,NULL
305,26,Kuyanbana,Chesa,,,,PHCC TALAWYI,UBANDOMA,547,19th September 2016,23rd September 2016,19th-23rd September 2016,NULL,NULL
306,26,Musa,HUSSAINA,7036990319,,,PHCC OSHA,UBANDOMA,547,19th September 2016,23rd September 2016,19th-23rd September 2016,NULL,NULL
307,26,Abubakar,Abdukadir,8155624073,,JCHEW,PHCC ASHIRIWE,UBANDOMA,547,24th October 2016,28th October 2016,24th-28th October 2016,NULL,NULL
308,26,Bawa,Ahmed,,,M&E,,,547,19th September 2016,23rd September 2016,19th-23rd September 2016,NULL,NULL
309,32,GOSPEL,HEZRON,9030766888,,BSC,Adada (Riverine),Adigbom,677,27th September 2016,1st October 2016,27th September - 1st October 2016,NULL,NULL
310,32,IGENEWANI,EMIGHENI,8065223077,,B. Ed,Agada1,Okpeden,677,27th September 2016,1st October 2016,27th September - 1st October 2016,NULL,NULL
311,32,Nathan,Robinson,7034154404,,BSC,Akani (Riverine),Kugbo,677,27th September 2016,1st October 2016,27th September - 1st October 2016,NULL,NULL
312,32,Jonathan,Igey,8064734089,,OND,Aminiowere,Emughani,677,27th September 2016,1st October 2016,27th September - 1st October 2016,NULL,NULL
313,32,Akio,Ediesiana,8063433342,,OND,Aminiowere,Emughani,677,27th September 2016,1st October 2016,27th September - 1st October 2016,NULL,NULL
314,32,Lennards,Ebitei,7068695414,,BSC,Amuruto (Riverine),Kugbo,677,27th September 2016,1st October 2016,27th September - 1st October 2016,NULL,NULL
315,32,KEMANI,GLORY,809265781,,JCHEW,Anyu,Orughonya,677,27th September 2016,1st October 2016,27th September - 1st October 2016,NULL,NULL
316,32,Godswill,Favour,8034303878,,B.ED,Arukwo,Ogbo-Abuan,677,27th September 2016,1st October 2016,27th September - 1st October 2016,NULL,NULL
317,32,Ogini,Gloria,8051182966,,B.ED,Arukwo,Ogbo-Abuan,677,27th September 2016,1st October 2016,27th September - 1st October 2016,NULL,NULL
318,32,SOKARI,CATHERINE,9038967384,,SCHEW,Cottage,Emughani,677,27th September 2016,1st October 2016,27th September - 1st October 2016,NULL,NULL
319,32,Ruth,Ozubu,8068942503,,OND,Cottage,Emughani,677,27th September 2016,1st October 2016,27th September - 1st October 2016,NULL,NULL
320,32,QUEEN,UMOR,7067920166,,BSC,Egbolom,Okpeden,677,27th September 2016,1st October 2016,27th September - 1st October 2016,NULL,NULL
321,32,Eserechi,Williams,8063199917,,CHEW,Egbolom,Okpeden,677,27th September 2016,1st October 2016,27th September - 1st October 2016,NULL,NULL
322,32,EZE,EDUGHOM,8168839964,,BSC,Elok,Okpeden,677,27th September 2016,1st October 2016,27th September - 1st October 2016,NULL,NULL
323,32,Walter,Umor,7031329885,,B.ED,Emago (Riverine),Kugbo,677,27th September 2016,1st October 2016,27th September - 1st October 2016,NULL,NULL
324,32,Emmanuel,Eneni,8067976473,,LL.B,Emago (Riverine),Kugbo,677,27th September 2016,1st October 2016,27th September - 1st October 2016,NULL,NULL
325,32,ORWARI,LIONEL,8099629201,,CHEW,Emelego,Adigbom,677,7th November 2016,11th November 2016,7th-11th November 2016,NULL,NULL
326,32,Morrisom,Precious,8188320873,,CHEW,Emelego,Adigbom,677,27th September 2016,1st October 2016,27th September - 1st October 2016,NULL,NULL
327,32,IGBAGIRI,MERCY,8164115666,,CHEW,Emesu,Emughani,677,27th September 2016,1st October 2016,27th September - 1st October 2016,NULL,NULL
328,32,Daniel,Augustine,8068516600,,SCHEW,Emirikpoko,Orughonya,677,7th November 2016,11th November 2016,7th-11th November 2016,NULL,NULL
329,32,WALTER,IBOH,8134159325,,B.ED,Emoh,Okpeden,677,7th November 2016,11th November 2016,7th-11th November 2016,NULL,NULL
330,32,Major,Iibi,7035261987,,B.ED,Iyak,Okpeden,677,7th November 2016,11th November 2016,7th-11th November 2016,NULL,NULL
331,32,JONATHAN,ENIGHEANI,8038674158,,CHEW,Obarany,Emughani,677,24th October 2016,28th October 2016,24th-28th October 2016,NULL,NULL
332,32,Oruwari,Ima,,,MRO,Obarany,Emughani,677,24th October 2016,28th October 2016,24th-28th October 2016,NULL,NULL
333,32,M.,EREKOSIMA,8062862513,,BSC,Odua,Orughonya,677,7th November 2016,11th November 2016,7th-11th November 2016,NULL,NULL
334,32,Love,Ologhi,7039451972,,CHEW,Ogbema,Ogbema,677,24th October 2016,28th October 2016,24th-28th October 2016,NULL,NULL
335,32,Ogu,Illami,,,CHO,Ogbema,Ogbema,677,24th October 2016,28th October 2016,24th-28th October 2016,NULL,NULL
336,32,Oruwari,Lionel,7030186493,,CHEW,Ogboloma,Adigbom,677,7th November 2016,11th November 2016,7th-11th November 2016,NULL,NULL
337,32,OKUNY,ROBERT,8036721721,,JCHEW,Ogonokom,Okpeden,677,24th October 2016,28th October 2016,24th-28th October 2016,NULL,NULL
338,32,Woodman,Joy,,,JCHEW,Ogonokom,Okpeden,677,24th October 2016,28th October 2016,24th-28th October 2016,NULL,NULL
339,32,KARIBO,VICTOR,7038359263,,BSC,Okoboh,Emughani,677,7th November 2016,11th November 2016,7th-11th November 2016,NULL,NULL
340,32,Ukwu,Gold,8027368051,,OND,Okolomade,Adigbom,677,7th November 2016,11th November 2016,7th-11th November 2016,NULL,NULL
341,32,Grant,Iberaan,,,CHEW,Otapha,Otapha,677,24th October 2016,28th October 2016,24th-28th October 2016,NULL,NULL
342,32,Omu,Mubula,,,SCHEW,Otapha,Otapha,677,24th October 2016,28th October 2016,24th-28th October 2016,NULL,NULL
343,32,Mopho,Imakuiloye,,,CHEW,Ayama,Ogbo-Abuan,677,24th October 2016,28th October 2016,24th-28th October 2016,NULL,NULL
344,32,Nworie,Dighobo,,,CHEW,Ayama,Ogbo-Abuan,677,24th October 2016,28th October 2016,24th-28th October 2016,NULL,NULL
345,32,Obuge,Nangi,,,LIO,,HQ,677,24th October 2016,28th October 2016,24th-28th October 2016,NULL,NULL
346,32,Kakimo,Fubara,7033033699,,CCO,,,677,7th November 2016,11th November 2016,7th-11th November 2016,NULL,NULL
347,32,Sampson,Joseph,8037452575,,DSNO,,HQ,677,27th September 2016,1st October 2016,27th September - 1st October 2016,NULL,NULL
348,32,Abalist,Mercy,7035183004,,SMO,,HQ,677,27th September 2016,1st October 2016,27th September - 1st October 2016,NULL,NULL
349,32,Akari,Deborah,,,M&E,,Abolga 4,677,24th October 2016,28th October 2016,24th-28th October 2016,NULL,NULL
350,32,Fyneface,Lebari,8135389155,,JCHEW,Kpean,Kpean,690,27th September 2016,1st October 2016,27th September - 1st October 2016,NULL,NULL
351,32,Ideede,Patience,,,BSC,Bane,Bane,690,24th October 2016,28th October 2016,24th-28th October 2016,NULL,NULL
352,32,Nwibasi,Kuebari,8039121758,,JCHEW,Bane,Bane,690,27th September 2016,1st October 2016,27th September - 1st October 2016,NULL,NULL
353,32,Nubani,Cordelia,8066593447,,CHEW,Beeri,Beeri,690,24th October 2016,28th October 2016,24th-28th October 2016,NULL,NULL
354,32,Bere,Patience,8030761297,,BSC,Betem,Betem,690,7th November 2016,11th November 2016,7th-11th November 2016,NULL,NULL
355,32,Ganale,Blessing,8064234989,,SCHEW,Bori,Bori,690,24th October 2016,28th October 2016,24th-28th October 2016,NULL,NULL
356,32,Dinah,Kinanee,7032370054,,HCHT,Bori,Bori,690,27th September 2016,1st October 2016,27th September - 1st October 2016,NULL,NULL
357,32,Peter,Lezua,8037602717,,PCHT,Bo-ue,Uegwere Boue,690,27th September 2016,1st October 2016,27th September - 1st October 2016,NULL,NULL
358,32,koki,Joy,8064056839,,CHEW,Kabangha,Kabangha,690,27th September 2016,1st October 2016,27th September - 1st October 2016,NULL,NULL
359,32,Nwiganale,Cecelia,8039117901,,SCHEW,Kaani II,Kaani,690,27th September 2016,1st October 2016,27th September - 1st October 2016,NULL,NULL
360,32,Kpeeka,Lenie,8039117901,,CHEW,Kaani I H/P,Kaani,690,24th October 2016,28th October 2016,24th-28th October 2016,NULL,NULL
361,32,Ledornu,Knee,7038700272,,SCHEW,Kaani I H/P,Kaani,690,27th September 2016,1st October 2016,27th September - 1st October 2016,NULL,NULL
362,32,Wugate,Barile,8068765260,,OND,Kpong,Taabaa,690,7th November 2016,11th November 2016,7th-11th November 2016,NULL,NULL
363,32,Nwiganale,Edith,,,JCHEW III,Kwawa,Kono,690,24th October 2016,28th October 2016,24th-28th October 2016,NULL,NULL
364,32,Queenth,Lateef,8189178013,,BSC,Kwawa,Kono,690,27th September 2016,1st October 2016,27th September - 1st October 2016,NULL,NULL
365,32,Ndeezia,Pretty,8068753460,,CHEW,Kaa,Gwara,690,27th September 2016,1st October 2016,27th September - 1st October 2016,NULL,NULL
366,32,Samuel,Legor,8063512101,,CHEW,Eekem,Gwara,690,7th November 2016,11th November 2016,7th-11th November 2016,NULL,NULL
367,32,Ikagbara,Jenetth,8134335451,,SCHEW,Gwara,Gwara,690,27th September 2016,1st October 2016,27th September - 1st October 2016,NULL,NULL
368,32,Zagha,Uebari,7034726540,,CCHA,Lueku,Lueku,690,27th September 2016,1st October 2016,27th September - 1st October 2016,NULL,NULL
369,32,Yorwika,Eunice,7037204943,,BSC,Luawii,Opouko,690,24th October 2016,28th October 2016,24th-28th October 2016,NULL,NULL
370,32,Nkiri,Jolly,8063463589,,JCHEW,Luawii,Opouko,690,27th September 2016,1st October 2016,27th September - 1st October 2016,NULL,NULL
371,32,Numene,Gift,8038166231,,CHEW,Luumene,Kabangha,690,27th September 2016,1st October 2016,27th September - 1st October 2016,NULL,NULL
372,32,Nwiepe,Barine,7032885985,,CHEW,Luuwa,Opouko,690,27th September 2016,1st October 2016,27th September - 1st October 2016,NULL,NULL
373,32,Kanee,Flora,8038140750,,BSC,Luebe,Luebe,690,7th November 2016,11th November 2016,7th-11th November 2016,NULL,NULL
374,32,Kpomie,Jacob,8033075466,,CHEW,Lorre,Luebe,690,27th September 2016,1st October 2016,27th September - 1st October 2016,NULL,NULL
375,32,Patience,Dii,8033999962,,ND,Nyorgo,Berri,690,7th November 2016,11th November 2016,7th-11th November 2016,NULL,NULL
376,32,Deeya,Stella,,,SCHEW,Okwale,Okwale,690,24th October 2016,28th October 2016,24th-28th October 2016,NULL,NULL
377,32,Emmanuel,Okorite,8131936328,,CHEW,Okwale,Okwale,690,27th September 2016,1st October 2016,27th September - 1st October 2016,NULL,NULL
378,32,Mmeaebe,Nemesor,,,JCHEW,Opuoko,Opouko,690,24th October 2016,28th October 2016,24th-28th October 2016,NULL,NULL
379,32,Nwidede,Matilda,8069456775,,CHO,Opuoko,Opouko,690,27th September 2016,1st October 2016,27th September - 1st October 2016,NULL,NULL
380,32,Sam,Beabubari,7039250075,,NURSE,souvereign,Bori,690,27th September 2016,1st October 2016,27th September - 1st October 2016,NULL,NULL
381,32,Yorkirika,Patience,,,BSC,Taabaa,Taabaa,690,24th October 2016,28th October 2016,24th-28th October 2016,NULL,NULL
382,32,Gbaraga,Moses,8065927636,,Diploma,Taabaa,Taabaa,690,27th September 2016,1st October 2016,27th September - 1st October 2016,NULL,NULL
383,32,Godwin,Lewa,8065973533,,JCHEW,Teka-sorgo,Sogho,690,27th September 2016,1st October 2016,27th September - 1st October 2016,NULL,NULL
384,32,Ndeezia,Leakiere,8068201175,,SCHEW,Wiiyaakera,Wiiyaakera,690,24th October 2016,28th October 2016,24th-28th October 2016,NULL,NULL
385,32,Anthonia,Ipaa,8073214029,,CHEW,Wiiyaakera,Wiiyaakera,690,27th September 2016,1st October 2016,27th September - 1st October 2016,NULL,NULL
386,32,Naalenwi,Goodluck,8032697723,,JCHEW,Yae,Luebe,690,27th September 2016,1st October 2016,27th September - 1st October 2016,NULL,NULL
387,32,Deedenwi,Jaja,8060900657,,BSC,Zor-sorgho,Sogho,690,7th November 2016,11th November 2016,7th-11th November 2016,NULL,NULL
388,32,Monica,Kpugimaape,8063336790,,LIO,,HQ,690,7th November 2016,11th November 2016,7th-11th November 2016,NULL,NULL
389,32,Mercy,Nwigbara,,,DSNO,,Bori,690,27th September 2016,1st October 2016,27th September - 1st October 2016,NULL,NULL
390,32,Helen,Amanikpo,8136525210,,CCO,,HQ,690,7th November 2016,11th November 2016,7th-11th November 2016,NULL,NULL
391,32,S,Sudor,8020361128,,M&E,,HQ,690,7th November 2016,11th November 2016,7th-11th November 2016,NULL,NULL
392,32,Leerabari,Deepie,8060447129,,SMO,,HQ,690,27th September 2016,1st October 2016,27th September - 1st October 2016,NULL,NULL
393,32,Vera,Adegor,8034848839,,HND,Air Force,Rumuomasi,691,7th November 2016,11th November 2016,7th-11th November 2016,NULL,NULL
394,32,Oluwafemi,Akande,8032932489,,SCHEW,Bori Camp,Rumuokoro,691,27th September 2016,1st October 2016,27th September - 1st October 2016,NULL,NULL
395,32,OGBONDA,REJOICE,7065616544,,CHEW,Choba HP,Rumuekini,691,27th September 2016,1st October 2016,27th September - 1st October 2016,NULL,NULL
396,32,Theresa,Onwudinjo,8061219453,,CHEW,COHSTECH,Rumueme,691,27th September 2016,1st October 2016,27th September - 1st October 2016,NULL,NULL
397,32,CHOKO,ROSE,8037348609,,OND,MPHC-Eliozu,Oroigwe,691,27th September 2016,1st October 2016,27th September - 1st October 2016,NULL,NULL
398,32,Ogonda,Joy,8075372865,,CHO,MPHC-Eliozu,Oroigwe,691,27th September 2016,1st October 2016,27th September - 1st October 2016,NULL,NULL
399,32,BOB,BLESSING,8035494276,,CHO,FSP Elelenwo,Elelenlewo,691,27th September 2016,1st October 2016,27th September - 1st October 2016,NULL,NULL
400,32,ETHEL,OGWU,8069331059,,SCHEW,MPHC-Eneka,Ward 14,691,24th October 2016,28th October 2016,24th-28th October 2016,NULL,NULL
401,32,Weli,Abigail,8036718115,,OND,MPHC-Eneka,Ward 14,691,27th September 2016,1st October 2016,27th September - 1st October 2016,NULL,NULL
402,32,Douglas,Alaba,8034812492,,PCHT 1,MPHC-Iriebe,Iriebe,691,24th October 2016,28th October 2016,24th-28th October 2016,NULL,NULL
403,32,Nangibo,Blessing,8028171529,,HND,MPHC-Iriebe,Iriebe,691,27th September 2016,1st October 2016,27th September - 1st October 2016,NULL,NULL
404,32,OMASIRICHI,WAMA,8064875235,,SCHEW,MPHC-Ozuoba,Akpor,691,24th October 2016,28th October 2016,24th-28th October 2016,NULL,NULL
405,32,Peace,Akani,8065173204,,JCHEW,MPHC-Ozuoba,Akpor,691,27th September 2016,1st October 2016,27th September - 1st October 2016,NULL,NULL
406,32,Ngozi,Wikiri,,,CHO,MPHC-Rumueme,Rumueme,691,24th October 2016,28th October 2016,24th-28th October 2016,NULL,NULL
407,32,Chukwu,Doris,8032332712,,OND,MPHC-Rumueme,Rumueme,691,27th September 2016,1st October 2016,27th September - 1st October 2016,NULL,NULL
408,32,Chkwu,Blessing,8032759905,,CHEW,PHC-Rumuekini,Rumuekini,691,27th September 2016,1st October 2016,27th September - 1st October 2016,NULL,NULL
409,32,PHILOMINA,ORLU,8038807655,,CHEW,MPHC-Rumuepirikom,Rumuepirikom,691,27th September 2016,1st October 2016,27th September - 1st October 2016,NULL,NULL
410,32,Jack,Gloria,8036704404,,CHEW,MPHC-Rumuepirikom,Rumuepirikom,691,27th September 2016,1st October 2016,27th September - 1st October 2016,NULL,NULL
411,32,Chinenye,Juliana,8134428801,,JCHEW,MPHC-Rukpokwu,Ward 14,691,24th October 2016,28th October 2016,24th-28th October 2016,NULL,NULL
412,32,Ahuewere,Amadi,,,CHO,MPHC-Rukpokwu,Ward 14,691,24th October 2016,28th October 2016,24th-28th October 2016,NULL,NULL
413,32,GIFT,ADELE,8068750639,,CHEW,MPHC-Rumuodomaya,Rumuodomaya,691,24th October 2016,28th October 2016,24th-28th October 2016,NULL,NULL
414,32,Catherine,Ordu,8188320873,,HND,MPHC-Rumuodomaya,Rumuodomaya,691,27th September 2016,1st October 2016,27th September - 1st October 2016,NULL,NULL
415,32,Okene,Charity,8061164518,,OND,Rumuodara HP,Obalga 2b,691,7th November 2016,11th November 2016,7th-11th November 2016,NULL,NULL
416,32,DIKE,FELICIA,8063742193,,JCHEW,Rumuokparali HP,Rumuokparali,691,7th November 2016,11th November 2016,7th-11th November 2016,NULL,NULL
417,32,CHINWE,AMADI,8067517585,,JCHEW,MPHC-Rumuokwurusi,Ward 3,691,24th October 2016,28th October 2016,24th-28th October 2016,NULL,NULL
418,32,Dede,Stella,,,BSC,MPHC-Rumuokwurusi,Ward 3,691,24th October 2016,28th October 2016,24th-28th October 2016,NULL,NULL
419,32,Akani,Lilian,8061137671,,CHEW,MPHC-Rumuolumeni,Rumuolemeni,691,7th November 2016,11th November 2016,7th-11th November 2016,NULL,NULL
420,32,Rosemary,Wobeh,7030186493,,CHEW,St. Judes PHC,Rumuokoro,691,7th November 2016,11th November 2016,7th-11th November 2016,NULL,NULL
421,32,Florence,Onu,8030973755,,M.Ed,PHC-Rumuokwuta,Rumuokwuta,691,27th September 2016,1st October 2016,27th September - 1st October 2016,NULL,NULL
422,32,HAPPINESS,ORDU,8038806870,,BSC,MPHC-Rumuigbo,Rumuigbo,691,7th November 2016,11th November 2016,7th-11th November 2016,NULL,NULL
423,32,ALICE,ONYEMA,8060609391,,HND,Obio Cottage Hosp.,Rumuomasi,691,7th November 2016,11th November 2016,7th-11th November 2016,NULL,NULL
424,32,NWAMADI,AGNES,8162492567,,ND,MPHC WOJI,Woji,691,7th November 2016,11th November 2016,7th-11th November 2016,NULL,NULL
425,32,Janet,Idatoru,8063659943,,PGDE,UPTH,Choba,691,7th November 2016,11th November 2016,7th-11th November 2016,NULL,NULL
426,32,POROBEL,BRIDGET,8102895408,,OND,UOE,Rumuolumeni,691,7th November 2016,11th November 2016,7th-11th November 2016,NULL,NULL
427,32,UGWUNALI,COMFORT,8033394633,,CHEW,NNS PATHFINDER,Rumuolumeni,691,27th September 2016,1st October 2016,27th September - 1st October 2016,NULL,NULL
428,32,Amadi,Blessing,8052794444,,LIO,,HQ,691,7th November 2016,11th November 2016,7th-11th November 2016,NULL,NULL
429,32,Okocha,Dorothy,8037180884,,CCO,,LGA,691,7th November 2016,11th November 2016,7th-11th November 2016,NULL,NULL
430,32,Love,Onyegbula,8037313722,,SMO,,HQ,691,27th September 2016,1st October 2016,27th September - 1st October 2016,NULL,NULL
431,32,Okocha,Pauline,7061126708,,M&E,,HQ,691,7th November 2016,11th November 2016,7th-11th November 2016,NULL,NULL
432,32,Thankgod,Akani,7064591030,,DSNO,,HQ,691,27th September 2016,1st October 2016,27th September - 1st October 2016,NULL,NULL
